An R client for iRODS
…
Rows: 153 Columns: 14
── Column specification ────────────────────────────────────────────────────────
Delimiter: ","
chr  (6): names, owner, stars_url, contributors_url, commits_url, downloaded_at
dbl  (4): fork_count, open_issues, stargazers_count, watchers_count
lgl  (3): private, fork, archived
dttm (1): created_at

ℹ Use `spec()` to retrieve the full column specification for this data.
ℹ Specify the column types or set `show_col_types = FALSE` to quiet this message.

irods_github

# A tibble: 153 × 14
   names owner private fork  archived created_at          fork_count open_issues
   <chr> <chr> <lgl>   <lgl> <lgl>    <dttm>                   <dbl>       <dbl>
 1 irod… irods FALSE   FALSE TRUE     2012-06-07 19:26:59         14           0
 2 voti… irods FALSE   FALSE FALSE    2013-09-03 18:51:20          0           3
 3 cont… irods FALSE   FALSE FALSE    2013-10-04 01:37:03         20          14
 4 irods irods FALSE   FALSE FALSE    2013-11-26 18:10:18        135        1016
 5 libs… irods FALSE   FALSE FALSE    2013-12-19 17:18:52          1           0
 6 irod… irods FALSE   FALSE FALSE    2013-12-19 19:32:03         14          40
 7 irod… irods FALSE   FALSE FALSE    2013-12-20 14:10:25          0           1
 8 irod… irods FALSE   FALSE FALSE    2013-12-20 14:10:45          1          15
 9 irod… irods FALSE   FALSE FALSE    2014-01-07 17:33:17          1           1
10 guin… irods FALSE   FALSE FALSE    2014-01-28 14:07:01          0           7
# ℹ 143 more rows
# ℹ 6 more variables: stargazers_count <dbl>, watchers_count <dbl>,
#   stars_url <chr>, contributors_url <chr>, commits_url <chr>,
#   downloaded_at <chr>
…
==========
iRODS Zone
==========
                                  logical_path        type
 /tempZone/home/rods/irods_ugm23/irods_sub.rds data_object

And retrieve the data as a new object.

ireadRDS("irods_sub.rds")

# A tibble: 98 × 14
   names owner private fork  archived created_at          fork_count open_issues
   <chr> <chr> <lgl>   <lgl> <lgl>    <dttm>                   <dbl>       <dbl>
 1 voti… irods FALSE   FALSE FALSE    2013-09-03 18:51:20          0           3
 2 cont… irods FALSE   FALSE FALSE    2013-10-04 01:37:03         20          14
 3 irods irods FALSE   FALSE FALSE    2013-11-26 18:10:18        135        1016
 4 libs… irods FALSE   FALSE FALSE    2013-12-19 17:18:52          1           0
 5 irod… irods FALSE   FALSE FALSE    2013-12-19 19:32:03         14          40
 6 irod… irods FALSE   FALSE FALSE    2013-12-20 14:10:25          0           1
 7 irod… irods FALSE   FALSE FALSE    2013-12-20 14:10:45          1          15
 8 irod… irods FALSE   FALSE FALSE    2014-01-07 17:33:17          1           1
 9 guin… irods FALSE   FALSE FALSE    2014-01-28 14:07:01          0           7
10 scot… irods FALSE   FALSE FALSE    2014-01-28 14:24:56          1          21
# ℹ 88 more rows
# ℹ 6 more variables: stargazers_count <dbl>, watchers_count <dbl>,
#   stars_url <chr>, contributors_url <chr>, commits_url <chr>,
#   downloaded_at <chr>
…
